R in 3 Months Week 6 (Tidy Data)
…
life_expectancy_over_time |>
  pivot_longer(
    cols = -country,
    names_to = "year",
    values_to = "life_expectancy"
  )

# A tibble: 120 × 3
   country     year  life_expectancy
   <chr>       <chr>           <dbl>
 1 Afghanistan 1952             28.8
 2 Afghanistan 1957             30.3
 3 Afghanistan 1962             32.0
 4 Afghanistan 1967             34.0
 5 Afghanistan 1972             36.1
 6 Afghanistan 1977             38.4
 7 Afghanistan 1982             39.9
 8 Afghanistan 1987             40.8
 9 Afghanistan 1992             41.7
10 Afghanistan 1997             41.8
# ℹ 110 more rows
…
